﻿<?xml version="1.0" encoding="utf-8"?>
<svg version="1.1" xmlns:xlink="http://www.w3.org/1999/xlink" width="25px" height="22px" xmlns="http://www.w3.org/2000/svg">
  <g transform="matrix(1 0 0 1 -295 -19 )">
    <path d="M 8.62573099415205 10.2142857142857  C 8.62573099415205 9.34508928571429  7.92884990253411 8.64285714285714  7.06627680311891 8.64285714285714  C 6.2037037037037 8.64285714285714  5.50682261208577 9.34508928571429  5.50682261208577 10.2142857142857  C 5.50682261208577 11.0834821428571  6.2037037037037 11.7857142857143  7.06627680311891 11.7857142857143  C 7.92884990253411 11.7857142857143  8.62573099415205 11.0834821428571  8.62573099415205 10.2142857142857  Z M 14.083820662768 10.2142857142857  C 14.083820662768 9.34508928571429  13.3869395711501 8.64285714285714  12.5243664717349 8.64285714285714  C 11.6617933723197 8.64285714285714  10.9649122807018 9.34508928571429  10.9649122807018 10.2142857142857  C 10.9649122807018 11.0834821428571  11.6617933723197 11.7857142857143  12.5243664717349 11.7857142857143  C 13.3869395711501 11.7857142857143  14.083820662768 11.0834821428571  14.083820662768 10.2142857142857  Z M 19.541910331384 10.2142857142857  C 19.541910331384 9.34508928571429  18.8450292397661 8.64285714285714  17.9824561403509 8.64285714285714  C 17.1198830409357 8.64285714285714  16.4230019493177 9.34508928571429  16.4230019493177 10.2142857142857  C 16.4230019493177 11.0834821428571  17.1198830409357 11.7857142857143  17.9824561403509 11.7857142857143  C 18.8450292397661 11.7857142857143  19.541910331384 11.0834821428571  19.541910331384 10.2142857142857  Z M 25 10.2142857142857  C 25 4.571875  19.4152046783626 0  12.5243664717349 0  C 5.63352826510721 0  0.0487329434697856 4.571875  0.0487329434697856 10.2142857142857  C 0.0487329434697856 12.5517857142857  1.01851851851852 14.6928571428571  2.62670565302144 16.4165178571429  C 1.90058479532164 18.3513392857143  0.389863547758285 19.9915178571429  0.365497076023392 20.0111607142857  C 0.043859649122807 20.3549107142857  -0.043859649122807 20.8558035714286  0.141325536062378 21.2879464285714  C 0.326510721247563 21.7200892857143  0.750487329434698 22  1.21832358674464 22  C 4.21539961013645 22  6.57894736842105 20.7379464285714  7.99707602339181 19.7263392857143  C 9.40545808966862 20.1732142857143  10.9259259259259 20.4285714285714  12.5243664717349 20.4285714285714  C 19.4152046783626 20.4285714285714  25 15.8566964285714  25 10.2142857142857  Z M 22.6608187134503 10.2142857142857  C 22.6608187134503 14.5455357142857  18.1140350877193 18.0714285714286  12.5243664717349 18.0714285714286  C 11.2231968810916 18.0714285714286  9.93664717348928 17.8700892857143  8.7037037037037 17.4772321428571  L 7.59746588693957 17.1236607142857  L 6.64717348927875 17.8013392857143  C 5.95029239766082 18.2973214285714  4.99512670565302 18.8522321428571  3.84502923976608 19.2254464285714  C 4.20077972709552 18.63125  4.54678362573099 17.9633928571429  4.81481481481482 17.2513392857143  L 5.33138401559454 15.8714285714286  L 4.32748538011696 14.8008928571429  C 3.44541910331384 13.853125  2.38791423001949 12.2866071428571  2.38791423001949 10.2142857142857  C 2.38791423001949 5.88303571428572  6.93469785575049 2.35714285714286  12.5243664717349 2.35714285714286  C 18.1140350877193 2.35714285714286  22.6608187134503 5.88303571428572  22.6608187134503 10.2142857142857  Z " fill-rule="nonzero" fill="#ffffff" stroke="none" transform="matrix(1 0 0 1 295 19 )" />
  </g>
</svg>