﻿<?xml version="1.0" encoding="utf-8"?>
<svg version="1.1" xmlns:xlink="http://www.w3.org/1999/xlink" width="94px" height="43px" xmlns="http://www.w3.org/2000/svg">
  <g transform="matrix(1 0 0 1 -700 -315 )">
    <path d="M 93.1066506705083 25.9508143451581  L 83.0463201846998 42.5960884213406  C 58.9636813387951 28.2119518051512  30.6016522791909 20  0 20.0000160416992  L 0 0  C 32.8210559912451 0  65.0174454050456 8.97382215174673  93.1066506705083 25.9508143451581  Z " fill-rule="nonzero" fill="#4caf50" stroke="none" transform="matrix(1 0 0 1 700 315 )" />
  </g>
</svg>