﻿<?xml version="1.0" encoding="utf-8"?>
<svg version="1.1" xmlns:xlink="http://www.w3.org/1999/xlink" width="38px" height="99px" xmlns="http://www.w3.org/2000/svg">
  <g transform="matrix(1 0 0 1 -842 -411 )">
    <path d="M 18 84  C 18 56.9714513119843  11.5937763982902 31.690054515344  0.186770019268693 9.56125806133963  L 17.4681315346942 0.513983058038548  C 30.9551061850109 26.2756941363975  38 54.9214126391407  38 84  C 38 88.8076568971674  37.8073869906497 93.6133838181792  37.4226243472818 98.4056194706852  L 17.5157713142349 96.8073229870036  C 17.836683507943 92.5865700464098  18 88.31555545394  18 84  Z " fill-rule="nonzero" fill="#ff9800" stroke="none" transform="matrix(1 0 0 1 842 411 )" />
  </g>
</svg>