﻿<?xml version="1.0" encoding="utf-8"?>
<svg version="1.1" xmlns:xlink="http://www.w3.org/1999/xlink" width="56px" height="105px" xmlns="http://www.w3.org/2000/svg">
  <g transform="matrix(1 0 0 1 -520 -507 )">
    <path d="M 0.547570236610795 2.02944945519482  L 17.4765525074147 0.705954979951116  C 20.1673661372084 36.3837926400788  34.1177608125166 68.4749507538537  55.8744482405032 93.5261301566361  L 42.8615063829351 104.589165742115  C 18.3101723086303 75.7105563978564  3.5018902050283 39.8185229554886  0.547570236610795 2.02944945519482  Z " fill-rule="nonzero" fill="#e91e63" stroke="none" transform="matrix(1 0 0 1 520 507 )" />
  </g>
</svg>