﻿<?xml version="1.0" encoding="utf-8"?>
<svg version="1.1" xmlns:xlink="http://www.w3.org/1999/xlink" width="150px" height="150px" xmlns="http://www.w3.org/2000/svg">
  <g transform="matrix(1 0 0 1 -332 -270 )">
    <path d="M 407 270  C 449 270  482 303  482 345  C 482 387  449 420  407 420  C 365 420  332 387  332 345  C 332 303  365 270  407 270  Z " fill-rule="nonzero" fill="#3f51b5" stroke="none" />
  </g>
</svg>