﻿<?xml version="1.0" encoding="utf-8"?>
<svg version="1.1" xmlns:xlink="http://www.w3.org/1999/xlink" width="5px" height="145px" xmlns="http://www.w3.org/2000/svg">
  <g transform="matrix(1 0 0 1 -540 -341 )">
    <path d="M 1 0  L 1 142  " stroke-width="2" stroke="#ffffff" fill="none" transform="matrix(1 0 0 1 541 342 )" />
  </g>
</svg>