﻿<?xml version="1.0" encoding="utf-8"?>
<svg version="1.1" xmlns:xlink="http://www.w3.org/1999/xlink" width="91px" height="69px" xmlns="http://www.w3.org/2000/svg">
  <g transform="matrix(1 0 0 1 -562 -598 )">
    <path d="M 0.775656626702357 13.4881092033316  L 15.5329177696985 0.960846284645982  C 34.9602370879203 23.9318814206299  60.8606104205195 41.1770465981006  90.6619283233899 50.1242121615043  L 84.8358811593509 68.9696963650786  C 52.1071474432583 58.8516678660783  22.945308535102 39.6042162184646  0.775656626702357 13.4881092033316  Z " fill-rule="nonzero" fill="#f44336" stroke="none" transform="matrix(1 0 0 1 562 598 )" />
  </g>
</svg>