﻿<?xml version="1.0" encoding="utf-8"?>
<svg version="1.1" xmlns:xlink="http://www.w3.org/1999/xlink" width="150px" height="150px" xmlns="http://www.w3.org/2000/svg">
  <g transform="matrix(1 0 0 1 -305 -445 )">
    <path d="M 380 445  C 422 445  455 478  455 520  C 455 562  422 595  380 595  C 338 595  305 562  305 520  C 305 478  338 445  380 445  Z " fill-rule="nonzero" fill="#9c27b0" stroke="none" />
  </g>
</svg>