﻿<?xml version="1.0" encoding="utf-8"?>
<svg version="1.1" xmlns:xlink="http://www.w3.org/1999/xlink" width="170px" height="170px" xmlns="http://www.w3.org/2000/svg">
  <g transform="matrix(1 0 0 1 -615 -90 )">
    <path d="M 700 92  C 746.48 92  783 128.52  783 175  C 783 221.48  746.48 258  700 258  C 653.52 258  617 221.48  617 175  C 617 128.52  653.52 92  700 92  Z " fill-rule="nonzero" fill="#ffffff" stroke="none" fill-opacity="0" />
    <path d="M 700 91.5  C 746.76 91.5  783.5 128.24  783.5 175  C 783.5 221.76  746.76 258.5  700 258.5  C 653.24 258.5  616.5 221.76  616.5 175  C 616.5 128.24  653.24 91.5  700 91.5  Z " stroke-width="3" stroke="#4caf50" fill="none" />
  </g>
</svg>