﻿<?xml version="1.0" encoding="utf-8"?>
<svg version="1.1" xmlns:xlink="http://www.w3.org/1999/xlink" width="5px" height="152px" xmlns="http://www.w3.org/2000/svg">
  <g transform="matrix(1 0 0 1 -753 -593 )">
    <path d="M 755 594  L 755 743  " stroke-width="2" stroke="#ffffff" fill="none" />
  </g>
</svg>