﻿<?xml version="1.0" encoding="utf-8"?>
<svg version="1.1" xmlns:xlink="http://www.w3.org/1999/xlink" width="150px" height="150px" xmlns="http://www.w3.org/2000/svg">
  <g transform="matrix(1 0 0 1 -730 -740 )">
    <path d="M 805 740  C 847 740  880 773  880 815  C 880 857  847 890  805 890  C 763 890  730 857  730 815  C 730 773  763 740  805 740  Z " fill-rule="nonzero" fill="#9e9e9e" stroke="none" />
  </g>
</svg>