﻿<?xml version="1.0" encoding="utf-8"?>
<svg version="1.1" xmlns:xlink="http://www.w3.org/1999/xlink" width="170px" height="170px" xmlns="http://www.w3.org/2000/svg">
  <g transform="matrix(1 0 0 1 -720 -730 )">
    <path d="M 805 732  C 851.48 732  888 768.52  888 815  C 888 861.48  851.48 898  805 898  C 758.52 898  722 861.48  722 815  C 722 768.52  758.52 732  805 732  Z " fill-rule="nonzero" fill="#ffffff" stroke="none" fill-opacity="0" />
    <path d="M 805 731.5  C 851.76 731.5  888.5 768.24  888.5 815  C 888.5 861.76  851.76 898.5  805 898.5  C 758.24 898.5  721.5 861.76  721.5 815  C 721.5 768.24  758.24 731.5  805 731.5  Z " stroke-width="3" stroke="#9e9e9e" fill="none" />
  </g>
</svg>