﻿<?xml version="1.0" encoding="utf-8"?>
<svg version="1.1" xmlns:xlink="http://www.w3.org/1999/xlink" width="170px" height="170px" xmlns="http://www.w3.org/2000/svg">
  <g transform="matrix(1 0 0 1 -360 -610 )">
    <path d="M 445 612  C 491.48 612  528 648.52  528 695  C 528 741.48  491.48 778  445 778  C 398.52 778  362 741.48  362 695  C 362 648.52  398.52 612  445 612  Z " fill-rule="nonzero" fill="#ffffff" stroke="none" fill-opacity="0" />
    <path d="M 445 611.5  C 491.76 611.5  528.5 648.24  528.5 695  C 528.5 741.76  491.76 778.5  445 778.5  C 398.24 778.5  361.5 741.76  361.5 695  C 361.5 648.24  398.24 611.5  445 611.5  Z " stroke-width="3" stroke="#e91e63" fill="none" />
  </g>
</svg>