﻿<?xml version="1.0" encoding="utf-8"?>
<svg version="1.1" xmlns:xlink="http://www.w3.org/1999/xlink" width="5px" height="137px" xmlns="http://www.w3.org/2000/svg">
  <g transform="matrix(1 0 0 1 -871 -441 )">
    <path d="M 873 442  L 873 576  " stroke-width="2" stroke="#ffffff" fill="none" />
  </g>
</svg>